{
	"winefinder_id": 0,
	"brand_name": "Ardent Union",
	"phone": "855-673-7374",
	"brand_email": "",
	"winefinder": "#",
	"privacy_policy": "/legalcontent/privacy-policy",
	"use_agreement": "/legalcontent/use-agreement",
	"ca_privacy_notice": "/legalcontent/ca-privacy-notice",
	"copyright": "/legalcontent/copyright",
	"unsubscribe_href": "/unsubscribe",
	"contact_href": "#"
}