{
	"winefinder_id": 0,
	"brand_name": "Black Box Spirits",
	"phone": "833-731-6082",
	"brand_email": "consumerrelations@blackboxspirits.com",
	"winefinder": "/where-to-buy",
	"privacy_policy": "/legal/privacy-policy",
	"use_agreement": "/legal/use-agreement",
	"ca_privacy_notice": "/legal/ca-privacy-notice",
	"copyright": "/legal/copyright",
	"unsubscribe_href": "/unsubscribe",
	"contact_href": "/contact"
}