{
	"winefinder_id": 1,
	"brand_name": "Bartles & James",
	"phone": "1-866-830-5714",
	"brand_email": "",
	"winefinder": "/where-to-buy.html",
	"privacy_policy": "/privacy.html",
	"use_agreement": "/usage-agreement.html",
	"ca_privacy_notice": "/ca-privacy-notice.html",
	"copyright": "/legal/copyright.html",
	"unsubscribe_href": "/unsubscribe.html",
	"contact_href": "/contact-us"
}