{
	"winefinder_id": 145,
	"brand_name": "Ember Wines",
	"phone": "1-833-592-0940",
	"brand_email": "consumerrelations@embervineyards.com",
	"winefinder": "/wine-finder.html",
	"privacy_policy": "/legal/privacy-policy.html",
	"use_agreement": "/legal/use-agreement.html",
	"ca_privacy_notice": "/legal/ca-privacy-notice.html",
	"copyright": "/legal/copyright.html",
	"unsubscribe_href": "/unsubscribe.html",
	"contact_href": "/contact-us"
}
