{
	"winefinder_id": 0,
	"brand_name": "Gallo Trends",
	"phone": "",
	"brand_email": "consumerrelations@gallotrends.com",
	"winefinder": "",
	"privacy_policy": "/privacy-policy.html",
	"use_agreement": "/use-agreement.html",
	"ca_privacy_notice": "/ca-privacy-notice.html",
	"copyright": "/copyright.html",
	"unsubscribe_href": "/unsubscribe.html",
	"contact_href": "/"
}