{
	"winefinder_id": 0,
	"brand_name": "High Noon",
	"phone": "1-855-592-8482",
	"brand_email": "consumerrelations@highnoonvodka.com",
	"winefinder": "/",
	"privacy_policy": "legal/privacy-policy.html",
	"use_agreement": "/legal/use-agreement",
	"ca_privacy_notice": "/legal/ca-privacy-notice",
	"copyright": "/legal/copyright",
	"unsubscribe_href": "/unsubscribe",
	"contact_href": "/contact-us"
}