{
	"winefinder_id": 0,
	"brand_name": "Las Rocas Wine",
	"phone": "",
	"brand_email": "/",
	"winefinder": "/",
	"privacy_policy": "/legal/privacy-policy.asp",
	"use_agreement": "/legal/user-agreement.asp",
	"ca_privacy_notice": "/legal/ca-privacy-notice.asp",
	"copyright": "/legal/copyright.asp",
	"unsubscribe_href": "/",
	"contact_href": "/contact/index.asp"
}