{
	"winefinder_id": 0,
	"brand_name": "L'usin Cellars",
	"phone": "707-968-3370",
	"brand_email": "consumerrelations@lusinecellars.com",
	"winefinder": "/where-to-buy",
	"privacy_policy": "/Privacy%20Policy",
	"use_agreement": "/index.cfm?method=pages.showPage&pageid=F4EF6AA3-D322-48AD-9030-4C27993490AD",
	"ca_privacy_notice": "/ca-privacy-notice",
	"copyright": "/copyright",
	"unsubscribe_href": "/unsubscribe",
	"contact_href": "/index.cfm?method=pages.showPage&pageid=F4EF6AA3-D322-48AD-9030-4C27993490AD"
}