{
	"winefinder_id": 0,
	"brand_name": "Martin Codax",
	"phone": "877-648-2783",
	"brand_email": "consumerrelations@martincodaxwines.com",
	"winefinder": "/where-to-buy-livingston-cellars.php",
	"privacy_policy": "/legal/privacy.html",
	"use_agreement": "/legal/use_agreement.html",
	"ca_privacy_notice": "/legal/ca-privacy-notice.html",
	"copyright": "/legal/copyright.html",
	"unsubscribe_href": "/unsubscribe",
	"contact_href": "contact.html"
}