{
	"winefinder_id": 109,
	"brand_name": "Dolcea Winery",
	"phone": "1-855-370-9463",
	"brand_email": "consumerrelations@miadolcea.com",
	"winefinder": "/",
	"privacy_policy": "/Legal/Privacy-Policy.php",
	"use_agreement": "/Legal/Use-Agreement.php",
	"ca_privacy_notice": "/Legal/ca-privacy-notice.php",
	"copyright": "/Legal/Copyright.php",
	"unsubscribe_href": "/",
	"contact_href": "/"
}