{
	"winefinder_id": 126,
	"brand_name": "Mount Peak Winery",
	"phone": "",
	"brand_email": "consumerrelations@mountpeakwinery.com",
	"winefinder": "",
	"privacy_policy": "/legal-privacy_policy.php",
	"use_agreement": "/legal-use_agreement.php",
	"ca_privacy_notice": "/legal-ca-privacy-notice.php",
	"copyright": "/legal-copyright.php",
	"unsubscribe_href": "/unsubscribe",
	"contact_href": "/contact.php"
}