{
	"winefinder_id": 208,
	"brand_name": "Paradise Cove Drinks",
	"phone": "1-800-321-9463",
	"brand_email": "consumerrelations@paradisecovedrinks.com",
	"winefinder": "/wheretobuy",
	"privacy_policy": "/privacy-policy",
	"use_agreement": "/use-agreement",
	"ca_privacy_notice": "/ca-privacy-notice",
	"copyright": "/trademarks",
	"unsubscribe_href": "/unsubscribe",
	"contact_href": "/contact"
}