{
	"winefinder_id": 38,
	"brand_name": "Starborough Wines",
	"phone": "1-877-488-2783",
	"brand_email": "consumerrelations@starboroughwines.com",
	"winefinder": "/where-to-find.php",
	"privacy_policy": "/legal/privacy-policy.php",
	"use_agreement": "/legal/use-agreement.php",
	"ca_privacy_notice": "/legal/ca-privacy-notice.php",
	"copyright": "/legal/copyright.php",
	"unsubscribe_href": "/unsubscribe.php",
	"contact_href": "/contact-us.php"
}