{
	"winefinder_id": 169,
	"brand_name": "Vendange",
	"phone": "877-901-8721",
	"brand_email": "consumerrelations@vendange.com",
	"winefinder": "/where-to-buy.html",
	"privacy_policy": "/privacy-policy.html",
	"use_agreement": "/use-agreement.html",
	"ca_privacy_notice": "/ca-privacy-notice.html",
	"copyright": "/copyright.html",
	"unsubscribe_href": "/unsubscribe.html",
	"contact_href": "/contactUs"
}
