{
	"winefinder_id": 3,
	"brand_name": "Wild Vines",
	"phone": "1-800-333-3320",
	"brand_email": "consumerrelations@wildvines.com",
	"winefinder": "/winelocate.asp",
	"privacy_policy": "/privacy.htm",
	"use_agreement": "/useagreement.htm",
	"ca_privacy_notice": "/ca-privacy-notice.htm",
	"copyright": "/copyright.htm",
	"unsubscribe_href": "/unsubscribe.htm",
	"contact_href": "/contactus.asp"
}